<?xml version="1.0" encoding="UTF-8"?>
<svg width="26px" height="25px" viewBox="0 0 26 25" version="1.1" xmlns="http://www.w3.org/2000/svg" xmlns:xlink="http://www.w3.org/1999/xlink">
    <!-- Generator: Sketch 54.1 (76490) - https://sketchapp.com -->
    <title></title>
    <desc>Created with Sketch.</desc>
    <g id="Page-1" stroke="none" stroke-width="1" fill="none" fill-rule="evenodd">
        <g id="v1.2.1-Скролл" transform="translate(-335.000000, -29.000000)" fill="#FFFFFF" fill-rule="nonzero" stroke="#335376">
            <g id="Group-9">
                <path d="M344.954733,45.1111111 C346.07408,45.1111111 347.105619,44.8312785 348.049383,44.2716049 C348.993146,43.7119314 349.739366,42.9602242 350.288066,42.0164609 C350.836765,41.0726976 351.111111,40.0411579 351.111111,38.9218107 C351.111111,37.8024635 350.836765,36.7709238 350.288066,35.8271605 C349.739366,34.8833972 348.993146,34.137177 348.049383,33.5884774 C347.105619,33.0397778 346.07408,32.7654321 344.954733,32.7654321 C343.835385,32.7654321 342.803846,33.0397778 341.860082,33.5884774 C340.916319,34.137177 340.164612,34.8833972 339.604938,35.8271605 C339.045265,36.7709238 338.765432,37.8024635 338.765432,38.9218107 C338.765432,40.0411579 339.045265,41.0726976 339.604938,42.0164609 C340.164612,42.9602242 340.916319,43.7119314 341.860082,44.2716049 C342.803846,44.8312785 343.835385,45.1111111 344.954733,45.1111111 Z M353.185185,45.1111111 L360,51.9259259 L357.925926,54 L351.111111,47.1522634 L351.111111,46.0658436 L350.716049,45.7037037 C349.94787,46.3840912 349.064477,46.905348 348.065844,47.2674897 C347.06721,47.6296314 346.030184,47.8106996 344.954733,47.8106996 C343.330582,47.8106996 341.832654,47.4156418 340.460905,46.6255144 C339.089156,45.835387 338.008234,44.7709258 337.218107,43.4320988 C336.406032,42.0493758 336,40.5459615 336,38.9218107 C336,37.2976599 336.400545,35.7997325 337.201646,34.4279835 C338.002747,33.0562346 339.089156,31.9753126 340.460905,31.1851852 C341.832654,30.3950578 343.330582,30 344.954733,30 C346.578883,30 348.082298,30.4060316 349.465021,31.218107 C350.803848,32.0082344 351.862822,33.0836695 352.641975,34.4444444 C353.421129,35.8052194 353.8107,37.2976599 353.8107,38.9218107 C353.8107,40.0192099 353.629631,41.0672104 353.26749,42.0658436 C352.905348,43.0644769 352.384091,43.94787 351.703704,44.7160494 L352.065844,45.1111111 L353.185185,45.1111111 Z" id=""></path>
            </g>
        </g>
    </g>
</svg>